{
  "iisSettings": {
    "windowsAuthentication": false,
    "anonymousAuthentication": true,
    "iis": {
      "applicationUrl": "http://localhost/WalletApi",
      "sslPort": 0
    },
    "iisExpress": {
      "applicationUrl": "http://localhost:19610",
      "sslPort": 44371
    }
  },
  "$schema": "http://json.schemastore.org/launchsettings.json",
  "profiles": {
    "IIS Express": {
      "commandName": "IISExpress",
      "workingDirectory": "C:\\inetpub\\wwwroot\\wallet",
      "launchBrowser": true,
      "launchUrl": "moneda",
      "environmentVariables": {
        "ASPNETCORE_ENVIRONMENT": "Development"
      }
    },
    "ApiWeb": {
      "commandName": "IISExpress",
      "workingDirectory": "C:\\inetpub\\wwwroot\\wallet2",
      "launchBrowser": true,
      "launchUrl": "moneda",
      "environmentVariables": {
        "ASPNETCORE_ENVIRONMENT": "Development"
      },
      "applicationUrl": "https://localhost:5001;http://localhost:5000"
    },
    "PWallet": {
      "commandName": "IIS",
      "workingDirectory": "C:\\inetpub\\wwwroot\\wallet"
    }
  }
}